{
  "items": [
    {
      "id": "b9v3f2g7",
      "name": "Alexander",
      "vehicleNumber": "MH 14 EF 1357",
      "services": "NOC",
      "toRTO": "MH 14",
      "amount": 180,
      "status": "created",
      "email": "alexander@example.com"
    },
    {
      "id": "h6k2n8z5",
      "name": "Ava",
      "vehicleNumber": "MH 15 GH 2468",
      "services": "TO",
      "toRTO": "MH 15",
      "amount": 220,
      "status": "pending",
      "email": "ava@example.com"
    },
    {
      "id": "w3q7y8v2",
      "name": "Michael",
      "vehicleNumber": "MH 16 IJ 9876",
      "services": "NOC, TO",
      "toRTO": "MH 16",
      "amount": 300,
      "status": "completed",
      "email": "michael@example.com"
    },
    {
      "id": "l1o5j9d6",
      "name": "Charlotte",
      "vehicleNumber": "MH 17 KL 5432",
      "services": "NOC",
      "toRTO": "MH 17",
      "amount": 160,
      "status": "created",
      "email": "charlotte@example.com"
    },
    {
      "id": "t9k3b7m5",
      "name": "Liam",
      "vehicleNumber": "MH 18 MN 7890",
      "services": "TO",
      "toRTO": "MH 18",
      "amount": 230,
      "status": "pending",
      "email": "liam@example.com"
    },
    {
      "id": "s4v8j2q6",
      "name": "Isabella",
      "vehicleNumber": "MH 19 OP 2468",
      "services": "NOC, TO",
      "toRTO": "MH 19",
      "amount": 320,
      "status": "completed",
      "email": "isabella@example.com"
    },
    {
      "id": "v6c1m9p3",
      "name": "Ethan",
      "vehicleNumber": "MH 20 QR 1357",
      "services": "NOC",
      "toRTO": "MH 20",
      "amount": 190,
      "status": "created",
      "email": "ethan@example.com"
    },
    {
      "id": "g2n5a8f4",
      "name": "Mia",
      "vehicleNumber": "MH 21 ST 5432",
      "services": "TO",
      "toRTO": "MH 21",
      "amount": 240,
      "status": "pending",
      "email": "mia@example.com"
    },
    {
      "id": "d8b4o6i1",
      "name": "Noah",
      "vehicleNumber": "MH 22 UV 7890",
      "services": "NOC, TO",
      "toRTO": "MH 22",
      "amount": 310,
      "status": "completed",
      "email": "noah@example.com"
    },
    {
      "id": "x1y9z5w3",
      "name": "Avery",
      "vehicleNumber": "MH 23 WX 2468",
      "services": "NOC",
      "toRTO": "MH 23",
      "amount": 200,
      "status": "created",
      "email": "avery@example.com"
    }
  ],
  "page": 1,
  "size": 10,
  "isFirst": false,
  "isLast": true,
  "totalPages": 2,
  "totalItems": 20
}
