{
  "items": [
    {
      "id": "t7fn84y6",
      "name": "James",
      "vehicleNumber": "MH 08 RS 7654",
      "services": "NOC",
      "toRTO": "MH 08",
      "amount": 170,
      "status": "created",
      "email": "james@example.com"
    },
    {
      "id": "p5gd62t4",
      "name": "Emma",
      "vehicleNumber": "MH 09 UV 2109",
      "services": "NOC, TO",
      "toRTO": "MH 09",
      "amount": 290,
      "status": "completed",
      "email": "emma@example.com"
    },
    {
      "id": "r3t9p1m8",
      "name": "John",
      "vehicleNumber": "MH 10 PQ 1234",
      "services": "TO",
      "toRTO": "MH 10",
      "amount": 200,
      "status": "pending",
      "email": "john@example.com"
    },
    {
      "id": "u2r5x9a1",
      "name": "Olivia",
      "vehicleNumber": "MH 11 AB 5678",
      "services": "NOC",
      "toRTO": "MH 11",
      "amount": 150,
      "status": "created",
      "email": "olivia@example.com"
    },
    {
      "id": "q8c2t6p5",
      "name": "William",
      "vehicleNumber": "MH 12 XY 8901",
      "services": "NOC, TO",
      "toRTO": "MH 12",
      "amount": 280,
      "status": "completed",
      "email": "william@example.com"
    },
    {
      "id": "n4m8r7z3",
      "name": "Sophia",
      "vehicleNumber": "MH 13 CD 2468",
      "services": "TO",
      "toRTO": "MH 13",
      "amount": 210,
      "status": "pending",
      "email": "sophia@example.com"
    },
    {
      "id": "b9v3f2g7",
      "name": "Alexander",
      "vehicleNumber": "MH 14 EF 1357",
      "services": "NOC",
      "toRTO": "MH 14",
      "amount": 180,
      "status": "created",
      "email": "alexander@example.com"
    },
    {
      "id": "h6k2n8z5",
      "name": "Ava",
      "vehicleNumber": "MH 15 GH 2468",
      "services": "TO",
      "toRTO": "MH 15",
      "amount": 220,
      "status": "pending",
      "email": "ava@example.com"
    },
    {
      "id": "w3q7y8v2",
      "name": "Michael",
      "vehicleNumber": "MH 16 IJ 9876",
      "services": "NOC, TO",
      "toRTO": "MH 16",
      "amount": 300,
      "status": "completed",
      "email": "michael@example.com"
    },
    {
      "id": "l1o5j9d6",
      "name": "Charlotte",
      "vehicleNumber": "MH 17 KL 5432",
      "services": "NOC",
      "toRTO": "MH 17",
      "amount": 160,
      "status": "created",
      "email": "charlotte@example.com"
    }
  ],
  "page": 0,
  "size": 10,
  "isFirst": true,
  "isLast": false,
  "totalPages": 2,
  "totalItems": 20
}
